{
  "type": "service_account",
  "project_id": "team1-apad-project",
  "private_key_id": "1fadbafa3d7f12c9412ef5ea4c054c6f74994985",
  "private_key": "-----BEGIN PRIVATE KEY-----\nMIIEvQIBADANBgkqhkiG9w0BAQEFAASCBKcwggSjAgEAAoIBAQC+6UA7OARPJtj4\nFZL5apvbJec+BfnDBykJGU99ww0wAMdArOtK7eqJFu4m28n2H7N9rnsUYeTg0a0X\n4ezWPxTzj4hTh9sd509AbX0cW0iipys7rAEWcGXddXhGGmw99vCKdGCgYLsPpyH/\npwckK6/2MaEsyUkfS6JHgNIZaQt8uICO63mk/8PojCsVxB6MC4PlKxlz/xAP3Y7N\nLI9XuwbChIzUsDTiziA8sge8VRvQJr6390IHw0XEmXaK2maUSk0YZCJ0/g1UNSjd\nNfL/2dOlYODXHSLjth7NFIG5A9kwLzCYrw6pd+sWENVIjmP7R9z4zcw1ab7qs5N3\n7+WxLGwpAgMBAAECggEASa++9nx7EU/1u9+b4IAZEx+QnxxwWCn52US3LVvtSaNr\nRNfZY4zsEyjSGBaKX+DBh1eisu3MCUh07nxpzRIBFLdIT7FmziZ7LOt1uE21fe5X\nHguYSeBtOOq/1xMYx1v6YP5lU1Gysep5EXOXKotgOf7S7nXsrtMjGkUrEtq8L9Fe\nQ0n5VA23YZ550hp3fiDdHCLc1bBovhrAegxB3XAo4MKA0yL3jJL8J7jNQ8ifIfIp\nE7BHERKypLQLKjVI6zBse/7/quJM+2kNz9WPYAXAhV90UhsbJ10mM1ZmFW78JrJt\nl151rXtGF6Vw9DycPfDPLJKP8jcpE2qeCR2UAS6qlwKBgQDgokqSdoCOpAaUd5Ys\n2QdJO4AcjVH8VpW+V7jWyh8iYY2jD5qvDVe9Kx5AgCZaPCyuNV/I7wVJPRZt5xQy\n1PCHWhDlcHGhV3GD4jQwgvsuxEKG68Eh/3gXWZkUHRruufsfdvNEyslT2D6yU7FI\n6CLrRQu0YhxL2IHfrwBR7miFdwKBgQDZkYMrDwg+Y0YniSv1pnvf+VxxpjOl/QV1\nj0GyX2jAKe+n73XPrT+waA+2aLqHj/IpBfDDNa29tUY4w8AEbg4mtnEJQNNoUld+\n8GrNU2ugIv9V3EksATLdnRS46VCZKGhBOdHMxmYNX1WJ29NCQ/MGM8NseCwqaoXZ\nQNSvpmGDXwKBgDd1WdvXDd4peMZmz9i6rCXUXsityzP1XHrlxWih9hXS59j+HT5i\nmOrHHmzmNpHIkW9hFgjRmgh+4G65wi7ai5efENTUcflXUVsyGZhwffsJ0TLmOYRf\nQhLht/1TQjb2C521DFJLjnD4zmHQb9CEHzrejQk3v6yqA0ZqOjYAGiX5AoGBAKLa\n6PQyLFmGtdyiMOWP2OmuHiRz4/U7j/qPYP3DrQUqXtm1xNnPNP0254wCmJ0ggoNy\njuWQKJz4M7gJzpGCT9VqevISNCzCdfvuugM3jjgv+jCq05q8yvZXvksrWclLFb69\nKO2/FGSuF7k5cskHU8IwvPdUfLrDQa19ebaBNDzBAoGAZ+xUjVjmjbqAYbvgobkm\nSJPXsrkVzfyBWgppmMoe0GrwLhgMOTTl4/W3p25kSRHDUiC9rvw6yNLMkY6JxnW6\nPfJJ8hz3MuPQDZYY+1dcPjqzCBb7Cd2Fv+SkAR6TXLQumGMge4eZKxIYdiKAxKv4\nZ30ePaaVO3uWeEHBubYy43g=\n-----END PRIVATE KEY-----\n",
  "client_email": "team1-service-account@team1-apad-project.iam.gserviceaccount.com",
  "client_id": "108016094079149232722",
  "auth_uri": "https://accounts.google.com/o/oauth2/auth",
  "token_uri": "https://oauth2.googleapis.com/token",
  "auth_provider_x509_cert_url": "https://www.googleapis.com/oauth2/v1/certs",
  "client_x509_cert_url": "https://www.googleapis.com/robot/v1/metadata/x509/team1-service-account%40team1-apad-project.iam.gserviceaccount.com"
}
